%YAML 1.1
%TAG !u! tag:unity3d.com,2011:
--- !u!1045 &1
EditorBuildSettings:
  m_ObjectHideFlags: 0
  serializedVersion: 2
  m_Scenes:
  - enabled: 0
    path: Assets/Scenes/SampleScene.unity
    guid: 99c9720ab356a0642a771bea13969a05
  - enabled: 1
    path: Assets/Scenes/PreInicio.unity
    guid: 9dbb2168239d9994fa12ac771d9cb155
  - enabled: 1
    path: Assets/Scenes/Inicio.unity
    guid: b63eab92f3adae64f8eba15c328c7c8e
  - enabled: 1
    path: Assets/Scenes/Lobby.unity
    guid: 488b4b37cbafaa8438493fd549505309
  - enabled: 1
    path: Assets/Scenes/Game.unity
    guid: 85cf96b2f2a9a9a47b59694308cb7b13
  m_configObjects: {}
